{
  "feature_generation":{
  "content":[
    {
      "label":"D_CONID",
      "fields":["d_content_id"],
      "score":"score"
    },
    {
      "label":"D_TITLEMD5",
      "fields":["d_title_md5"],
      "score":"score"
    },
    {
      "label":"D_GROUPID",
      "fields":["d_groupid"],
      "score":"score"
    },
    {
      "label":"D_PUBLISHER",
      "fields":["d_publisher"],
      "score":"score"
    },
    {
      "label":"D_KEYWORD",
      "fields":["d_keyword"],
      "score":"score"
    },
    {
      "label":"D_CATEGORY",
      "fields":["d_category"],
      "score":"score"
    }
  ],
  "user":[
    {
      "label":"U_UID",
      "fields":["u_uid"],
      "score":"score"
    },
    {
      "label":"U_CITY",
      "fields":["u_city"],
      "score":"score"
    },
    {
      "label":"U_KEYWORD",
          "fields":["u_keyword"],
      "score":"score"
    },
    {
      "label":"U_CATEGORY",
      "fields":["u_category"],
      "score":"score"
    },
    {
      "label":"U_AGE",
      "fields":["u_age"],
      "score":"score"
    },
    {
      "label":"U_GENDER",
      "fields":["u_gender"],
      "score":"score"
    },
    {
      "label":"U_APPCAT",
      "fields":["u_app_cat"],
      "score":"score"
    }
  ],
  "cross":[
    {
      "label":"C_D_U_KEYWORD_CATEGORY",
      "fields":["d_keyword", "u_category"],
      "score":"score"
    },
    {
      "label":"C_D_U_CATEGORY_GENDER",
      "fields":["d_category", "u_gender"],
      "score":"score"
    },
    {
      "label":"C_D_U_CATEGORY_AGE",
      "fields":["d_category", "u_age"],
      "score":"score"
    },
    {
      "label":"C_D_U_CATEGORY_CITY",
      "fields":["d_category", "u_city"],
      "score":"score"
    },
    {
      "label":"C_D_U_KEYWORD_CITY",
      "fields":["d_keyword", "u_city"],
      "score":"score"
    },
    {
      "label":"C_D_U_CONID_GENDER",
      "fields":["d_content_id", "u_gender"],
      "score":"score"
    },
    {
      "label":"C_D_U_CONID_AGE",
      "fields":["d_content_id", "u_age"],
      "score":"score"
    },
    {
      "label":"C_D_U_CONID_CITY",
      "fields":["d_content_id", "u_city"],
      "score":"score"
    },
    {
      "label":"C_D_U_CONID_CATEGORY",
      "fields":["d_content_id", "u_category"],
      "score":"score"
    },
    {
      "label":"C_D_U_TITLEMD5_GENDER",
      "fields":["d_title_md5", "u_gender"],
      "score":"score"
    },
    {
      "label":"C_D_U_TITLEMD5_AGE",
      "fields":["d_title_md5", "u_age"],
      "score":"score"
    },
    {
      "label":"C_D_U_TITLEMD5_CITY",
      "fields":["d_title_md5", "u_city"],
      "score":"score"
    },
    {
      "label":"C_D_U_TITLEMD5_CATEGORY",
      "fields":["d_title_md5", "u_category"],
      "score":"score"
    },
    {
      "label":"C_D_U_GROUPID_GENDER",
      "fields":["d_groupid", "u_gender"],
      "score":"score"
    },
    {
      "label":"C_D_U_GROUPID_AGE",
      "fields":["d_groupid", "u_age"],
      "score":"score"
    },
    {
      "label":"C_D_U_GROUPID_CITY",
      "fields":["d_groupid", "u_city"],
      "score":"score"
    },
    {
      "label":"C_D_U_GROUPID_CATEGORY",
      "fields":["d_groupid", "u_category"],
      "score":"score"
    },
    {
      "label":"C_D_U_PUBLISHER_AGE",
      "fields":["d_publisher", "u_age"],
      "score":"score"
    },
    {
      "label":"C_D_U_PUBLISHER_GENDER",
      "fields":["d_publisher", "u_gender"],
      "score":"score"
    },
    {
      "label":"C_D_U_PUBLISHER_CITY",
      "fields":["d_publisher", "u_city"],
      "score":"score"
    },
    {
      "label":"C_D_U_CATEGORY_CATEGORY",
      "fields":["d_category","u_category"],
      "score":"score"
    },
    {
      "label":"C_D_U_CATEGORY_KEYWORD",
      "fields":["d_category","u_keyword"],
      "score":"score"
    },
    {
      "label":"C_D_U_CATEGORY_UID",
      "fields":["d_category","u_uid"],
      "score":"score"
    },
    {
      "label":"C_D_U_KEYWORD_GENDER",
      "fields":["d_keyword","u_gender"],
      "score":"score"
    },
    {
      "label":"C_D_U_KEYWORD_AGE",
      "fields":["d_keyword","u_age"],
      "score":"score"
    },
	{
      "label":"C_D_U_CONID_APPCAT",
      "fields":["d_content_id","u_app_cat"],
      "score":"score"
    },
	{
      "label":"C_D_U_TITLEMD5_APPCAT",
      "fields":["d_title_md5","u_app_cat"],
      "score":"score"
    },
    {
      "label":"C_D_U_GROUPID_APPCAT",
      "fields":["d_groupid","u_app_cat"],
      "score":"score"
    },
    {
      "label":"C_D_U_PUBLISHER_APPCAT",
      "fields":["d_publisher","u_app_cat"],
      "score":"score"
    },
    {
      "label":"C_D_U_KEYWORD_APPCAT",
      "fields":["d_keyword","u_app_cat"],
      "score":"score"
    },
    {
      "label":"C_D_U_CATEGORY_APPCAT",
      "fields":["d_category","u_app_cat"],
      "score":"score"
    }

  ],
  "match":[
    {
      "label":"M_D_U_KEYWORD_KEYWORD",
      "fields":["d_keyword", "u_keyword"],
      "score":"score"
    }
  ]
},
"exclude_feature_type":[
    
]
}
