{
  "default_parameters":
  {
    "dest_base_path": "/data/app/nrt_india/"
  },
  "package_conf":
  {
    "package_name": "nrt_india",
    "scm": "git",
    "include_paths": ["release/confs","release/data","release/lib"]
  },
  "install_conf": {
    "link": [
      {
        "src": "release/confs",
        "dest": "$(dest_base_path)/confs"
      },
      {
        "src": "release/data",
        "dest": "$(dest_base_path)/data"
      },
      {
        "src": "release/lib",
        "dest": "$(dest_base_path)/lib"
      }
    ],
   "additional_ops": [
      "mkdir $(dest_base_path)/logs || true",
      "mkdir $(dest_base_path)/run || true"
   ]
  },
  "start": "cd $(dest_base_path)  && ./start.sh",
  "stop": "cd $(dest_base_path)  && ./start.sh"
}
